<?xml version="1.0" encoding="utf-8"?>
<?xml-stylesheet type="text/css" href="../css/svganimation.css" ?>
<svg version="1.1" id="flori" xmlns="http://www.w3.org/2000/svg" xmlns:xlink="http://www.w3.org/1999/xlink" x="0px" y="0px"
	 viewBox="0 0 300 300" style="enable-background:new 0 0 300 300;" xml:space="preserve">
<style type="text/css">
	.st0{fill:#F4D8BE;}
	.st1{fill:#EDCFB7;}
	.st2{fill:#FFEAD9;}
	.st3{fill:#FFEDD7;}
	.st4{fill:#F9E2CA;}
	.st5{fill:#FFF6EE;}
	.st6{fill:#F9DCC0;}
	.st7{fill:#A58163;}
	.st8{fill:#876A4E;}
	.st9{fill:#B58A66;}
	.st10{fill:#FFFFFF;}
	.st11{fill:#F9E3CA;}
	.st12{fill:#B28C6D;}
	.st13{fill:#F4DABE;}
	.st14{fill:#A07F65;}
	.st15{fill:#997F68;}
	.st16{fill:#C6A185;}
	.st17{fill:#FFF3E9;}
	.st18{fill:#FFEDDC;}
	.st19{fill:#FFEFE3;}
	.st20{fill:#F2F2F2;}
	.st21{fill:#8E8E8E;}
	.st22{fill:#6D6D6D;}
	.st23{fill:#696B6B;}
	.st24{fill:none;stroke:#3F3F3F;stroke-width:20;stroke-miterlimit:10;}
	.st25{fill:#8C7562;}
	.st26{fill:#BCBCBC;}
	.st27{fill:#878787;}
	.st28{fill:#7F7F7F;}
	.st29{fill:#A5A5A5;}
	.st30{fill:#777777;}
	.st31{fill:#848484;}
</style>
<g id="ear_x5F_r">
	<g>
		<polygon class="st0" points="948,796.9 1008,751.4 988.8,925 		"/>
		<polygon class="st1" points="1008,751.4 955.2,749.2 948,796.9 		"/>
		<polygon class="st2" points="989.9,917.3 974,929 948,796.9 		"/>
	</g>
</g>
<g id="ear_x5F_l">
	<g>
		<polygon class="st3" points="477.5,844 419,787.4 461,982.3 		"/>
		<polygon class="st4" points="419,787.4 477.5,810.3 477,849 		"/>
		<polygon class="st5" points="461,982 482,982 477,849 		"/>
	</g>
</g>
<g id="neck">
	<polygon class="st4" points="605.6,1405.3 857.6,1415.9 793.1,1251 	"/>
	<polygon class="st6" points="641,1234.1 605.6,1405.3 793.1,1251 	"/>
</g>
<g id="face">
	<g id="Ebene_1">
		<polygon class="st7" points="698.1,1129 905.8,1093.3 798.7,1318.3 		"/>
		<polygon class="st8" points="1004.6,1171.9 798.7,1318.3 905.8,1093.3 		"/>
		<polygon class="st8" points="578.1,1221.9 798.7,1318.3 698.1,1129 		"/>
		<polygon class="st8" points="578,1011.1 487.2,1118.3 578,1221.9 		"/>
		<polygon class="st8" points="477,849 487.4,1118.3 578.3,1011.1 		"/>
		<polygon class="st9" points="1004.6,1171.9 994.8,1018.3 905.8,1093.3 		"/>
		<polygon class="st10" points="948,796.9 994.8,1018.3 905.8,1093.3 		"/>
		<polygon class="st4" points="480.5,851 444.6,707.6 598,762 		"/>
		<polygon class="st11" points="966,654 948,790.9 823.1,761.1 		"/>
		<polygon class="st3" points="444.6,707.6 473.1,564.7 598.1,761.1 		"/>
		<polygon class="st3" points="823.1,761.1 894.6,550.4 966,654 		"/>
		<polygon class="st0" points="473.1,564.7 894.6,550.4 598.1,761.1 		"/>
		<polygon class="st11" points="823,762 598,762 894.6,550.9 		"/>
		<polygon class="st12" points="578,1011.1 697.8,1129 578,1221.9 		"/>
		<polygon class="st3" points="578.3,1011.1 615,759 477,849 		"/>
		<polygon class="st13" points="821.4,761.1 924.9,961.1 948,790.9 		"/>
		<polygon class="st14" points="578.3,1011.1 733.6,978.6 698.1,1129 		"/>
		<polygon class="st15" points="905.9,1093.6 865,967.6 775.1,982.6 		"/>
		<polygon class="st12" points="924.9,961.1 994.8,1018.3 948,796.9 		"/>
		<polygon class="st16" points="905.8,1093.3 924.9,961.1 994.8,1018.3 		"/>
		<polygon class="st8" points="865,967.6 905.8,1093.3 924.9,961.1 		"/>
		<polygon class="st17" points="733.6,978.6 804.9,1110.6 698.1,1129 		"/>
		<polygon class="st3" points="775.1,982.6 804.9,1110.6 905.8,1093.3 		"/>
		<polygon class="st3" points="733.6,978.6 775.1,982.6 804.9,1110.6 		"/>
		<polygon class="st5" points="600.6,867 733.6,978.6 578.3,1011.1 		"/>
		<polygon class="st5" points="733,979 733,838 774.4,982.6 		"/>
		<polygon class="st0" points="865,967.6 733.6,835 775.1,982.6 		"/>
		<polygon class="st3" points="865,967.6 877.5,867 924.9,961.1 		"/>
		<polygon class="st2" points="733.6,835 877.5,867 865,967.6 		"/>
		<polygon class="st18" points="600,867 733,835 733,979 		"/>
		<polygon class="st17" points="616,761.5 733,838 598,867 		"/>
		<polygon class="st17" points="823,761.5 885,873 726.5,835 		"/>
		<polygon class="st19" points="616,761.5 733,838 823,762 		"/>
		<polygon class="st8" points="733,979 775.1,982.6 808.7,1011.1 		"/>
		<polygon class="st12" points="722.1,1027.2 808.7,1011.1 733,979 		"/>
	</g>
</g>
<g id="eye_x5F_l">
	<g>
		<polygon class="st10" points="517.4,794.6 588.5,747 657,763 594.1,822.6 		"/>
		<polygon class="st20" points="588,786 587,747.5 657,763 		"/>
		<polygon class="st21" points="562.4,786.9 593.6,805.1 616.2,779.2 587.5,761.1 		"/>
		<polygon class="st22" points="589.6,785.4 587.5,761.1 614.6,780.1 		"/>
	</g>
</g>
<g id="eye_x5F_r">
	<g>
		<polygon class="st10" points="778.9,764.9 837.5,721 920.5,753.7 845,798 		"/>
		<polygon class="st20" points="850,762 837.5,721 920.5,753.7 		"/>
		<polygon class="st21" points="819.7,764.3 849.8,783 874.9,760.8 841.2,736.1 		"/>
		<polygon class="st23" points="839.9,759.1 839.9,736.8 873.2,761.6 		"/>
	</g>
</g>
<g id="glass_x5F_r">
	<polygon class="st24" points="974,811.5 765.4,839.2 739.1,700.5 950.3,678.7 	"/>
	<g id="glass_x5F_l">
		<polygon class="st24" points="698.1,845.5 466.7,856.6 462.9,723.5 676,701.4 		"/>
	</g>
</g>
<g id="eyebr_x5F_l">
	<g>
		<polygon class="st8" points="635.7,658.9 542.7,635.9 472.4,684.7 475,708.4 513.7,691.2 566.7,665.9 652.8,678.4 		"/>
		<polygon class="st25" points="549.2,637.5 475,708.4 566.7,665.9 		"/>
	</g>
</g>
<g id="eyebr_x5F_r">
	<g>
		<polygon class="st8" points="770.2,654.1 857.2,614 935.4,648.8 937.4,672.5 896.1,662.9 839.3,648 757.1,676.5 		"/>
		<polygon class="st8" points="851.2,616.8 937.4,672.5 839.3,648 		"/>
	</g>
</g>
<g id="hut">
	<polygon class="st26" points="444.6,707.6 409,504 473.1,564.7 	"/>
	<polygon class="st21" points="894.6,550.9 710.5,539.8 409,504 473.1,564.7 	"/>
	<polygon class="st27" points="904.1,403 894.6,550.9 710.5,539.8 	"/>
	<polygon class="st28" points="409,504 904.1,403 710.5,539.8 	"/>
	<polygon class="st29" points="966,654 1119,614.3 894.6,550.9 	"/>
	<polygon class="st30" points="1044.6,466 904.1,403 894.6,550.9 	"/>
	<polygon class="st31" points="1119,614.3 1044.6,466 894.6,550.9 	"/>
</g>
</svg>
