<?xml version="1.0" encoding="utf-8"?>
<!-- Generator: Adobe Illustrator 19.0.1, SVG Export Plug-In . SVG Version: 6.00 Build 0)  -->
<svg version="1.1" id="PSCC" xmlns="http://www.w3.org/2000/svg" xmlns:xlink="http://www.w3.org/1999/xlink" x="0px" y="0px"
	 viewBox="56 3 611 595" style="enable-background:new 56 3 611 595;" xml:space="preserve">
<style type="text/css">
	.st0{fill:#444444;}
</style>
<path class="st0" d="M81.5,27.7h560.1v544.9H81.5V27.7z M56,598h611V2.3H56V598z"/>
<path class="st0" d="M203.7,141.8c0-1.7,3.6-3,5.7-3c16.4-0.8,40.4-1.3,65.6-1.3c70.6,0,98.1,38.7,98.1,88.2
	c0,64.7-46.9,92.4-104.5,92.4c-9.7,0-13-0.4-19.7-0.4v97.8c0,2.1-0.8,3-2.9,3h-39.4c-2,0-2.9-0.8-2.9-2.9V141.8z M248.8,277
	c5.9,0.4,10.5,0.4,20.6,0.4c29.8,0,57.8-10.5,57.8-50.9c0-32.3-20-48.7-54-48.7c-10.1,0-19.7,0.4-24.4,0.9L248.8,277L248.8,277z
	 M468,246.8c-20.2,0-26.9,10.1-26.9,18.5c0,9.3,4.6,15.6,31.5,29.4c40,19.3,52.5,37.8,52.5,65.1c0,40.7-31.1,62.6-73.1,62.6
	c-22.3,0-41.2-4.7-52.1-10.9c-1.7-0.8-2.1-2.1-2.1-4.2v-37.4c0-2.5,1.3-3.4,3-2.1c16,10.5,34.5,15.1,51.3,15.1
	c20.2,0,28.6-8.4,28.6-19.7c0-9.3-5.9-17.2-31.5-30.7c-36.2-17.2-51.2-34.8-51.2-64.3c0-32.8,25.6-60.1,70.1-60.1
	c21.8,0,37.3,3.4,45.7,7.2c2.1,1.3,2.5,3.3,2.5,5v34.9c0,2.1-1.3,3.4-3.8,2.5C501.1,251,484.4,246.9,468,246.8"/>
</svg>
