<?xml version="1.0" encoding="utf-8"?>
<!-- Generated by IcoMoon.io -->
<!DOCTYPE svg PUBLIC "-//W3C//DTD SVG 1.1//EN" "http://www.w3.org/Graphics/SVG/1.1/DTD/svg11.dtd">
<svg version="1.1" xmlns="http://www.w3.org/2000/svg" xmlns:xlink="http://www.w3.org/1999/xlink" width="32" height="32" viewBox="0 0 32 32">
<path fill="#000000" d="M26.667 10.667h-3.747c-0.6-1.040-1.427-1.94-2.42-2.613l2.167-2.167-1.887-1.887-2.9 2.9c-0.6-0.147-1.233-0.233-1.88-0.233s-1.28 0.087-1.88 0.233l-2.9-2.9-1.887 1.887 2.167 2.167c-0.993 0.673-1.82 1.573-2.42 2.613h-3.747v2.667h2.787c-0.073 0.433-0.12 0.88-0.12 1.333v1.333h-2.667v2.667h2.667v1.333c0 0.453 0.047 0.9 0.12 1.333h-2.787v2.667h3.747c1.38 2.387 3.96 4 6.92 4s5.54-1.613 6.92-4h3.747v-2.667h-2.787c0.073-0.433 0.12-0.88 0.12-1.333v-1.333h2.667v-2.667h-2.667v-1.333c0-0.453-0.047-0.9-0.12-1.333h2.787v-2.667zM18.667 21.333h-5.333v-2.667h5.333v2.667zM18.667 16h-5.333v-2.667h5.333v2.667z"></path>
</svg>
