<?xml version="1.0" encoding="utf-8"?>
<!-- Generator: Adobe Illustrator 19.0.1, SVG Export Plug-In . SVG Version: 6.00 Build 0)  -->
<svg version="1.1" id="Layer_1" xmlns="http://www.w3.org/2000/svg" xmlns:xlink="http://www.w3.org/1999/xlink" x="0px" y="0px"
	 viewBox="-575 337 128 128" style="enable-background:new -575 337 128 128;" xml:space="preserve">
<path d="M-511,337c-35.3,0-64,28.7-64,64c0,35.3,28.7,64,64,64s64-28.7,64-64C-447,365.7-475.7,337-511,337z M-493.1,402
	c0,19.7-13.1,32.9-32.5,32.9c-19,0-34.5-15.2-34.5-33.9c0-18.7,15.5-33.9,34.5-33.9c8.3,0,16.4,3,22.6,8.3l-8.8,9.9
	c-3.8-3.3-8.8-5.1-13.9-5.1c-11.7,0-21.1,9.3-21.1,20.8c0,11.4,9.5,20.8,21.1,20.8c9.9,0,16.3-4.7,18.4-13.2h-18.2v-13.1h32.3V402z
	 M-467.1,403.4v10h-8v-10h-10v-8h10v-10h8v10h10v8H-467.1z"/>
</svg>
